{
  "project_info": {
    "project_number": "90359558288",
    "project_id": "vtv2-83130",
    "storage_bucket": "vtv2-83130.appspot.com"
  },
  "client": [
    {
      "client_info": {
        "mobilesdk_app_id": "1:90359558288:android:8bfcdabec0ff389f402815",
        "android_client_info": {
          "package_name": "com.example.vt2"
        }
      },
      "oauth_client": [
        {
          "client_id": "90359558288-l0gmiip7e8lkb7muddapdb1uo7bhtpql.apps.googleusercontent.com",
          "client_type": 3
        }
      ],
      "api_key": [
        {
          "current_key": "AIzaSyD794EFT9wvHh_evcX5_6j8nRuqjqYDcLQ"
        }
      ],
      "services": {
        "appinvite_service": {
          "other_platform_oauth_client": [
            {
              "client_id": "90359558288-l0gmiip7e8lkb7muddapdb1uo7bhtpql.apps.googleusercontent.com",
              "client_type": 3
            }
          ]
        }
      }
    }
  ],
  "configuration_version": "1"
}